digraph "SecurityContextStaticInitializeCall"
{
  edge [fontname="Helvetica",fontsize="10",labelfontname="Helvetica",labelfontsize="10"];
  node [fontname="Helvetica",fontsize="10",shape=record];
  Node1 [label="SecurityContextStaticInitializeCall",height=0.2,width=0.4,color="black", fillcolor="grey75", style="filled" fontcolor="black"];
  Node2 -> Node1 [dir="back",color="darkorchid3",fontsize="10",style="dashed",label=" context" ];
  Node2 [label="SecurityContext",height=0.2,width=0.4,color="black", fillcolor="white", style="filled",URL="$class_security_context.html"];
  Node3 -> Node2 [dir="back",color="midnightblue",fontsize="10",style="solid"];
  Node3 [label="ObjectWrap",height=0.2,width=0.4,color="grey75", fillcolor="white", style="filled"];
  Node4 -> Node2 [dir="back",color="darkorchid3",fontsize="10",style="dashed",label=" security_credentials" ];
  Node4 [label="SecurityCredentials",height=0.2,width=0.4,color="black", fillcolor="white", style="filled",URL="$class_security_credentials.html"];
  Node3 -> Node4 [dir="back",color="midnightblue",fontsize="10",style="solid"];
}
