digraph "E:/Projects/multi/VillagePosition/Server/API/node_modules/mongojs/node_modules/mongodb/node_modules/kerberos/lib/win32/wrappers" {
  compound=true
  node [ fontsize="10", fontname="Helvetica"];
  edge [ labelfontsize="10", labelfontname="Helvetica"];
  subgraph clusterdir_98280802cfc7f72383d5a846851d43f5 {
    graph [ bgcolor="#ddddee", pencolor="black", label="win32" fontname="Helvetica", fontsize="10", URL="dir_98280802cfc7f72383d5a846851d43f5.html"]
  dir_d8e8271275ef9ce873e57ec14ffd4489 [shape=box, label="wrappers", style="filled", fillcolor="#eeeeff", pencolor="black", URL="dir_d8e8271275ef9ce873e57ec14ffd4489.html"];
  }
}
