digraph "AuthGSSClientUnwrapCall"
{
  edge [fontname="Helvetica",fontsize="10",labelfontname="Helvetica",labelfontsize="10"];
  node [fontname="Helvetica",fontsize="10",shape=record];
  Node1 [label="AuthGSSClientUnwrapCall",height=0.2,width=0.4,color="black", fillcolor="grey75", style="filled" fontcolor="black"];
  Node2 -> Node1 [dir="back",color="darkorchid3",fontsize="10",style="dashed",label=" context" ,fontname="Helvetica"];
  Node2 [label="KerberosContext",height=0.2,width=0.4,color="black", fillcolor="white", style="filled",URL="$class_kerberos_context.html"];
  Node3 -> Node2 [dir="back",color="midnightblue",fontsize="10",style="solid",fontname="Helvetica"];
  Node3 [label="ObjectWrap",height=0.2,width=0.4,color="grey75", fillcolor="white", style="filled"];
  Node4 -> Node2 [dir="back",color="darkorchid3",fontsize="10",style="dashed",label=" state" ,fontname="Helvetica"];
  Node4 [label="gss_client_state",height=0.2,width=0.4,color="black", fillcolor="white", style="filled",URL="$structgss__client__state.html"];
}
